2.178988780000000220e-04 -1.116333210000000116e-04 4.698285099999999968e-05
-1.116333210000000116e-04 1.707120040000000125e-04 -7.184715499999999567e-05
4.698285099999999968e-05 -7.184715499999999567e-05 1.652831750000000152e-04
